{
    "KPlugin": {
        "Authors": [
            {
                "Name": "Hamish Rodda",
                "Name[ar]": "Hamish Rodda",
                "Name[az]": "Hamish Rodda",
                "Name[ca@valencia]": "Hamish Rodda",
                "Name[ca]": "Hamish Rodda",
                "Name[cs]": "Hamish Rodda",
                "Name[de]": "Hamish Rodda",
                "Name[el]": "Hamish Rodda",
                "Name[en_GB]": "Hamish Rodda",
                "Name[eo]": "Hamish Rodda",
                "Name[es]": "Hamish Rodda",
                "Name[et]": "Hamish Rodda",
                "Name[eu]": "Hamish Rodda",
                "Name[fi]": "Hamish Rodda",
                "Name[fr]": "Hamish Rodda",
                "Name[gl]": "Hamish Rodda",
                "Name[it]": "Hamish Rodda",
                "Name[ka]": "ჰამიშ როდდა",
                "Name[ko]": "Hamish Rodda",
                "Name[nl]": "Hamish Rodda",
                "Name[nn]": "Hamish Rodda",
                "Name[pl]": "Hamish Rodda",
                "Name[pt]": "Hamish Rodda",
                "Name[pt_BR]": "Hamish Rodda",
                "Name[ru]": "Hamish Rodda",
                "Name[sk]": "Hamish Rodda",
                "Name[sl]": "Hamish Rodda",
                "Name[sv]": "Hamish Rodda",
                "Name[tr]": "Hamish Rodda",
                "Name[uk]": "Hamish Rodda",
                "Name[x-test]": "xxHamish Roddaxx",
                "Name[zh_CN]": "Hamish Rodda"
            }
        ],
        "Category": "Core",
        "Description": "This plugin allows running of programs with no instrumentor, ie. natively by the current host.",
        "Description[az]": "Bu qoşma, heç bir alət olmadan proqramların işə düşməsinə imkan verir, yəni, cari hostdan alınaraq.",
        "Description[ca@valencia]": "Este connector permet executar programes sense instrumentador, és a dir, nativament per l'amfitrió actual.",
        "Description[ca]": "Aquest connector permet executar programes sense instrumentador, és a dir, nativament per la màquina actual.",
        "Description[cs]": "Tento zásuvný modul umožňuje běh programů bez jakéhokoliv prostředníka, takže běží přirozeně na současném hostiteli.",
        "Description[de]": "Dieses Modul erlaubt das Ausführen von Programmen im Kontext des Betriebssystems.",
        "Description[el]": "Αυτό το πρόσθετο επιτρέπει την εκτέλεση προγραμμάτων χωρίς οργανωτή, πχ. εγγενώς από τον τρέχων υπολογιστή.",
        "Description[en_GB]": "This plugin allows running of programs with no instrumentor, ie. natively by the current host.",
        "Description[eo]": "Ĉi tiu kromaĵo permesas ruladon de programoj sen instrumento, t.e. denaske de la nuna gastiganto.",
        "Description[es]": "Este complemento permite ejecutar programas sin instrumentador (es decir, de forma nativa) en la máquina actual.",
        "Description[et]": "See plugin võimaldab panna programme aktiivses masinas tööle ilma instrumentaatorita, s.t loomulikult.",
        "Description[eu]": "Plugin honek programak instrumentor bat gabe exekutatzen uzten du, hau da, ostalariarengatik naitboki.",
        "Description[fr]": "Ce module permet d'exécuter des programmes sans instrumentation, c'est-à-dire de manière native sur l'hôte courant.",
        "Description[gl]": "Este complemento permite executar programas sen intérprete, i.e. de xeito nativo na máquina actual.",
        "Description[it]": "Questa estensione permette l'esecuzione dei programmi senza instrumentor, vale a dire nativamente da parte dell'host attuale.",
        "Description[ko]": "이 플러그인은 프로그램을 현재 호스트에서 네이티브로(조사 도구 없이) 실행합니다.",
        "Description[nl]": "Deze plugin staat het uitvoeren van programma's toe zonder hulpprogramma, dwz. van nature op de huidige host.",
        "Description[pl]": "Uruchamia program bez instrumentora, np. macierzyście przez bieżącego gospodarza.",
        "Description[pt]": "Este 'plugin' permite a execução de programas sem instrumentação, i.e. nativamente na máquina-anfitriã actual.",
        "Description[pt_BR]": "Este plugin permite executar programas sem orquestrador, ou seja, nativamente pelo computador hospedeiro.",
        "Description[ru]": "Это расширение позволяет запускать программы без инструментальной обвязки, то есть непосредственно на текущем компьютере",
        "Description[sk]": "Tento plugin umožňuje spustenie programov bez inštrumentora, teda natívne aktuálnym hostiteľom.",
        "Description[sl]": "Vstavek omogoča zaganjanje programov, za katere v KDevelop ni posebnega grafičnega vmesnika.",
        "Description[sv]": "Insticksprogrammet tillåter att program utan instrumentering körs, dvs. direkt av nuvarande värddator.",
        "Description[tr]": "Bu eklenti, programların ek araç olmadan çalıştırılabilmesini sağlar, örn. geçerli istemci ile yerel olarak.",
        "Description[uk]": "За допомогою цього додатка можна запускати програми безпосередньо на поточному вузлі.",
        "Description[x-test]": "xxThis plugin allows running of programs with no instrumentor, ie. natively by the current host.xx",
        "Description[zh_CN]": "此插件允许以无操作者方式运行程序，例如，当前主机的原生方式。",
        "Description[zh_TW]": "此外掛程式允許在目前主機上執行程式。",
        "Icon": "system-run",
        "Id": "kdevexecute",
        "License": "GPL",
        "Name": "Execute Programs",
        "Name[ar]": "نفّذ برامجًا",
        "Name[az]": "İcraetmə proqramları",
        "Name[bg]": "Изпълняване на програми",
        "Name[bs]": "Izvrši programe",
        "Name[ca@valencia]": "Executa programes",
        "Name[ca]": "Executa programes",
        "Name[cs]": "Spustit programy",
        "Name[da]": "Kør programmer",
        "Name[de]": "Programme ausführen",
        "Name[el]": "Εκτέλεση προγραμμάτων",
        "Name[en_GB]": "Execute Programs",
        "Name[eo]": "Efektivigi Programojn",
        "Name[es]": "Ejecutar programas",
        "Name[et]": "Programmide täitmine",
        "Name[eu]": "Exekutatu programak",
        "Name[fr]": "Exécuter des programmes",
        "Name[ga]": "Rith Ríomhchláir",
        "Name[gl]": "Executar programas",
        "Name[hu]": "Programok végrehajtása",
        "Name[it]": "Esegui i programmi",
        "Name[ka]": "პროგრამების გაშვება",
        "Name[kk]": "Бағдарламаларды орындау",
        "Name[ko]": "프로그램 실행",
        "Name[nb]": "Kjør programmer",
        "Name[nds]": "Programmen utföhren",
        "Name[nl]": "Programma's uitvoeren",
        "Name[pl]": "Wykonaj programy",
        "Name[pt]": "Execução de Programas",
        "Name[pt_BR]": "Executar programa",
        "Name[ru]": "Запуск программ",
        "Name[sk]": "Spustiť programy",
        "Name[sl]": "Izvedi programe",
        "Name[sv]": "Kör program",
        "Name[tr]": "Uygulamaları Yürüt",
        "Name[ug]": "پروگرامما ئىجرا قىلىش",
        "Name[uk]": "Виконання програм",
        "Name[x-test]": "xxExecute Programsxx",
        "Name[zh_CN]": "执行程序",
        "Name[zh_TW]": "執行程式"
    },
    "X-KDevelop-Category": "Global",
    "X-KDevelop-Interfaces": [
        "org.kdevelop.IExecutePlugin"
    ],
    "X-KDevelop-Mode": "NoGUI"
}
